<?xml version="1.0" encoding="UTF-8" standalone="no"?>
<!-- Created with Inkscape (http://www.inkscape.org/) -->

<svg
   xmlns:dc="http://purl.org/dc/elements/1.1/"
   xmlns:cc="http://creativecommons.org/ns#"
   xmlns:rdf="http://www.w3.org/1999/02/22-rdf-syntax-ns#"
   xmlns:svg="http://www.w3.org/2000/svg"
   xmlns="http://www.w3.org/2000/svg"
   xmlns:sodipodi="http://sodipodi.sourceforge.net/DTD/sodipodi-0.dtd"
   xmlns:inkscape="http://www.inkscape.org/namespaces/inkscape"
   width="2.9367042mm"
   height="4.7706132mm"
   viewBox="0 0 2.936704 4.7706133"
   version="1.1"
   id="svg8"
   inkscape:version="0.92.2 (5c3e80d, 2017-08-06)"
   sodipodi:docname="location.svg">
  <defs
     id="defs2" />
  <sodipodi:namedview
     id="base"
     pagecolor="#ffffff"
     bordercolor="#666666"
     borderopacity="1.0"
     inkscape:pageopacity="0.0"
     inkscape:pageshadow="2"
     inkscape:zoom="2.8284271"
     inkscape:cx="47.965379"
     inkscape:cy="-25.427174"
     inkscape:document-units="mm"
     inkscape:current-layer="layer1"
     showgrid="false"
     inkscape:window-width="1366"
     inkscape:window-height="705"
     inkscape:window-x="-8"
     inkscape:window-y="-8"
     inkscape:window-maximized="1" />
  <metadata
     id="metadata5">
    <rdf:RDF>
      <cc:Work
         rdf:about="">
        <dc:format>image/svg+xml</dc:format>
        <dc:type
           rdf:resource="http://purl.org/dc/dcmitype/StillImage" />
        <dc:title></dc:title>
      </cc:Work>
    </rdf:RDF>
  </metadata>
  <g
     inkscape:label="Ebene 1"
     inkscape:groupmode="layer"
     id="layer1"
     transform="translate(-24.738541,-145.12919)">
    <circle
       style="fill:#545454;fill-opacity:1;stroke:none;stroke-width:0.01308109"
       id="path4514"
       cx="26.210163"
       cy="146.59427"
       r="1.4650819" />
    <path
       style="fill:#545454;fill-opacity:1;stroke:none;stroke-width:0.01308109px;stroke-linecap:butt;stroke-linejoin:miter;stroke-opacity:1"
       d="m 24.738541,146.60734 0.03844,0.28843 c 0.189726,0.94083 0.965757,2.06126 1.420889,3.00403 0.450189,-0.90027 1.070971,-1.73132 1.378256,-2.7745 l 0.09771,-0.50195 z"
       id="path4516"
       inkscape:connector-curvature="0"
       sodipodi:nodetypes="cccccc" />
    <circle
       style="fill:#ffffff;fill-opacity:1;stroke:none;stroke-width:0.01308109"
       id="path4520"
       cx="26.252676"
       cy="146.56483"
       r="0.53959489" />
  </g>
</svg>
