<?xml version="1.0" encoding="UTF-8" standalone="no"?>
<!-- Created with Inkscape (http://www.inkscape.org/) -->

<svg
   xmlns:dc="http://purl.org/dc/elements/1.1/"
   xmlns:cc="http://creativecommons.org/ns#"
   xmlns:rdf="http://www.w3.org/1999/02/22-rdf-syntax-ns#"
   xmlns:svg="http://www.w3.org/2000/svg"
   xmlns="http://www.w3.org/2000/svg"
   xmlns:sodipodi="http://sodipodi.sourceforge.net/DTD/sodipodi-0.dtd"
   xmlns:inkscape="http://www.inkscape.org/namespaces/inkscape"
   width="2.9370005mm"
   height="4.7710013mm"
   viewBox="0 0 2.9370005 4.7710014"
   version="1.1"
   id="svg8"
   inkscape:version="0.92.2 (5c3e80d, 2017-08-06)"
   sodipodi:docname="market.svg">
  <defs
     id="defs2" />
  <sodipodi:namedview
     id="base"
     pagecolor="#ffffff"
     bordercolor="#666666"
     borderopacity="1.0"
     inkscape:pageopacity="0.0"
     inkscape:pageshadow="2"
     inkscape:zoom="15.839192"
     inkscape:cx="6.4911489"
     inkscape:cy="10.509527"
     inkscape:document-units="mm"
     inkscape:current-layer="layer1"
     showgrid="false"
     inkscape:window-width="1366"
     inkscape:window-height="705"
     inkscape:window-x="-8"
     inkscape:window-y="-8"
     inkscape:window-maximized="1" />
  <metadata
     id="metadata5">
    <rdf:RDF>
      <cc:Work
         rdf:about="">
        <dc:format>image/svg+xml</dc:format>
        <dc:type
           rdf:resource="http://purl.org/dc/dcmitype/StillImage" />
        <dc:title></dc:title>
      </cc:Work>
    </rdf:RDF>
  </metadata>
  <g
     inkscape:label="Ebene 1"
     inkscape:groupmode="layer"
     id="layer1"
     transform="translate(-44.78693,-190.96933)">
    <rect
       style="fill:#000000;fill-opacity:1;stroke:none;stroke-width:0.16767921;stroke-miterlimit:4;stroke-dasharray:none;stroke-opacity:1"
       id="rect1018"
       width="0.22726789"
       height="3.31513"
       x="44.78693"
       y="192.4252"
       ry="0.094821855" />
    <rect
       style="fill:#000000;fill-opacity:1;stroke:none;stroke-width:0.19361924;stroke-miterlimit:4;stroke-dasharray:none;stroke-opacity:1"
       id="rect1018-9"
       width="0.22726789"
       height="4.4201736"
       x="46.063126"
       y="191.32014"
       ry="0.12642914" />
    <rect
       style="fill:#000000;fill-opacity:1;stroke:none;stroke-width:0.13212812;stroke-miterlimit:4;stroke-dasharray:none;stroke-opacity:1"
       id="rect1018-2"
       width="0.28167775"
       height="1.660804"
       x="191.32014"
       y="-47.72393"
       ry="0.047503565"
       transform="rotate(90)" />
    <rect
       style="fill:#000000;fill-opacity:1;stroke:none;stroke-width:0.19314413;stroke-miterlimit:4;stroke-dasharray:none;stroke-opacity:1"
       id="rect1018-29"
       width="0.22726789"
       height="4.3985062"
       x="47.496658"
       y="191.32014"
       ry="0.12580937" />
    <rect
       style="fill:#000000;fill-opacity:1;stroke:none;stroke-width:0.1746576;stroke-miterlimit:4;stroke-dasharray:none;stroke-opacity:1"
       id="rect1018-3"
       width="0.28167775"
       height="2.9020362"
       x="195.45862"
       y="-47.688969"
       ry="0.083006218"
       transform="rotate(90)" />
    <rect
       style="fill:#000000;fill-opacity:1;stroke:none;stroke-width:0.12264622;stroke-miterlimit:4;stroke-dasharray:none;stroke-opacity:1"
       id="rect1018-3-9"
       width="0.28167775"
       height="1.4309884"
       x="192.4252"
       y="-46.217918"
       ry="0.040930204"
       transform="rotate(90)" />
    <rect
       style="fill:#000000;fill-opacity:1;stroke:none;stroke-width:0.20855734;stroke-miterlimit:4;stroke-dasharray:none;stroke-opacity:1"
       id="rect1068"
       width="1.0036501"
       height="0.63439012"
       x="45.214272"
       y="192.07246"
       ry="0.1121749" />
    <rect
       style="fill:#000000;fill-opacity:1;stroke:none;stroke-width:0.20855734;stroke-miterlimit:4;stroke-dasharray:none;stroke-opacity:1"
       id="rect1070"
       width="1.0507482"
       height="0.4596391"
       x="46.067223"
       y="190.96933"
       ry="0.12580922" />
    <rect
       style="fill:#000000;fill-opacity:1;stroke:none;stroke-width:0.07438327;stroke-miterlimit:4;stroke-dasharray:none;stroke-opacity:1"
       id="rect1018-3-9-5"
       width="0.17442897"
       height="0.84998649"
       x="192.11288"
       y="-47.31514"
       ry="0.024311958"
       transform="rotate(90)" />
    <rect
       style="fill:#000000;fill-opacity:1;stroke:none;stroke-width:0.07438327;stroke-miterlimit:4;stroke-dasharray:none;stroke-opacity:1"
       id="rect1018-3-9-5-5"
       width="0.17442897"
       height="0.84998661"
       x="192.47554"
       y="-47.320454"
       ry="0.024311958"
       transform="rotate(90)" />
    <rect
       style="fill:#000000;fill-opacity:1;stroke:none;stroke-width:0.07438327;stroke-miterlimit:4;stroke-dasharray:none;stroke-opacity:1"
       id="rect1018-3-9-5-6"
       width="0.17442897"
       height="0.84998661"
       x="192.81853"
       y="-47.320454"
       ry="0.024311958"
       transform="rotate(90)" />
    <rect
       style="fill:#000000;fill-opacity:1;stroke:none;stroke-width:0.06698355;stroke-miterlimit:4;stroke-dasharray:none;stroke-opacity:1"
       id="rect1018-3-9-5-9"
       width="0.14073566"
       height="0.85430455"
       x="-46.681511"
       y="-195.69412"
       ry="0.024435457"
       transform="scale(-1)" />
    <rect
       style="fill:#000000;fill-opacity:1;stroke:none;stroke-width:0.06698355;stroke-miterlimit:4;stroke-dasharray:none;stroke-opacity:1"
       id="rect1018-3-9-5-9-7"
       width="0.14073566"
       height="0.85430455"
       x="-47.15126"
       y="-195.69412"
       ry="0.024435457"
       transform="scale(-1)" />
    <rect
       style="fill:#000000;fill-opacity:1;stroke:none;stroke-width:0.06303845;stroke-miterlimit:4;stroke-dasharray:none;stroke-opacity:1"
       id="rect1018-3-9-5-9-3"
       width="0.17442897"
       height="0.61048162"
       x="194.83981"
       y="-47.15126"
       ry="0.017461451"
       transform="rotate(90)" />
    <rect
       style="fill:#000000;fill-opacity:1;stroke:none;stroke-width:0.06231215;stroke-miterlimit:4;stroke-dasharray:none;stroke-opacity:1"
       id="rect1018-3-9-5-6-4"
       width="0.17442897"
       height="0.59649557"
       x="194.82976"
       y="-45.876244"
       ry="0.017061416"
       transform="rotate(90)" />
    <rect
       style="fill:#000000;fill-opacity:1;stroke:none;stroke-width:0.06231215;stroke-miterlimit:4;stroke-dasharray:none;stroke-opacity:1"
       id="rect1018-3-9-5-6-4-2"
       width="0.17442897"
       height="0.59649557"
       x="194.4785"
       y="-45.876244"
       ry="0.017061416"
       transform="rotate(90)" />
    <rect
       style="fill:#000000;fill-opacity:1;stroke:none;stroke-width:0.06231215;stroke-miterlimit:4;stroke-dasharray:none;stroke-opacity:1"
       id="rect1018-3-9-5-6-4-24"
       width="0.17442897"
       height="0.59649557"
       x="194.12669"
       y="-45.876244"
       ry="0.017061416"
       transform="rotate(90)" />
  </g>
</svg>
